<?xml version="1.0" encoding="utf-8"?>
<!-- Generator: Adobe Illustrator 24.1.1, SVG Export Plug-In . SVG Version: 6.00 Build 0)  -->
<svg version="1.1" id="Layer_1" xmlns="http://www.w3.org/2000/svg" xmlns:xlink="http://www.w3.org/1999/xlink" x="0px" y="0px"
	 viewBox="0 0 595.28 841.89" style="enable-background:new 0 0 595.28 841.89;" xml:space="preserve">
<style type="text/css">
	.st0{fill:#414042;}
</style>
<g>
	<g>
		<path class="st0" d="M39.13,397.41l25.61-26.57v65.34H39.13V397.41z"/>
	</g>
	<g>
		<path class="st0" d="M69.88,405.51h25.61v38.77l-25.61,26.57V405.51z"/>
	</g>
	<g>
		<path class="st0" d="M128.95,403.33c3,0,5.87,0.61,8.6,1.82c2.64,1.18,4.98,2.87,7.01,5.05c2.06,2.15,3.64,4.64,4.73,7.47
			c1.18,2.91,1.78,5.95,1.78,9.1c0,3.19-0.59,6.24-1.78,9.15c-1.09,2.82-2.67,5.31-4.73,7.47c-2.03,2.18-4.37,3.87-7.01,5.05
			c-2.73,1.21-5.6,1.82-8.6,1.82c-4.49,0-8.6-1.32-12.34-3.96v24.08h-9.79v-64.23c1.49-1.12,3.49-1.94,6.01-2.46
			c1.37-0.27,2.41-0.41,3.14-0.41c0.24,0,0.46,0.01,0.64,0.05v3.96C120.35,404.65,124.46,403.33,128.95,403.33z M128.95,440.47
			c1.67,0,3.26-0.35,4.78-1.05c1.49-0.7,2.79-1.68,3.91-2.96c1.15-1.24,2.03-2.69,2.64-4.32c0.67-1.7,1-3.49,1-5.37
			c0-1.85-0.33-3.63-1-5.33c-0.61-1.64-1.49-3.08-2.64-4.32c-1.12-1.27-2.43-2.26-3.91-2.96c-1.52-0.7-3.11-1.05-4.78-1.05
			c-1.67,0-3.26,0.35-4.78,1.05c-1.46,0.7-2.76,1.67-3.91,2.91c-1.12,1.24-2,2.69-2.64,4.32c-0.67,1.67-1,3.43-1,5.28v0.23
			c0,1.85,0.33,3.61,1,5.28c0.64,1.64,1.52,3.08,2.64,4.32c1.15,1.24,2.46,2.22,3.91,2.91
			C125.69,440.12,127.28,440.47,128.95,440.47z"/>
		<path class="st0" d="M168.07,430.68c0.76,2.82,2.23,5.13,4.42,6.92c2.15,1.76,4.63,2.72,7.42,2.87c0.55,0.03,1.06,0.05,1.55,0.05
			c3.04,0,5.37-0.55,7.01-1.64c1.82,0.55,3.6,1.76,5.33,3.64c1,1.06,1.79,2.09,2.37,3.1c-2.4,1.61-4.66,2.75-6.78,3.41
			c-2.61,0.82-5.77,1.23-9.47,1.23c-3,0-5.87-0.62-8.6-1.87c-2.64-1.18-4.99-2.85-7.06-5.01c-2.03-2.18-3.61-4.67-4.73-7.47
			c-1.15-2.91-1.73-5.96-1.73-9.15s0.58-6.24,1.73-9.15c1.12-2.79,2.7-5.28,4.73-7.47c2.06-2.15,4.42-3.82,7.06-5.01
			c2.73-1.24,5.6-1.87,8.6-1.87c2.67,0,5.22,0.5,7.65,1.5c2.34,0.97,4.46,2.35,6.37,4.14c1.85,1.76,3.38,3.82,4.6,6.19
			c1.21,2.4,2.05,4.98,2.5,7.74c0.18,1.31,0.27,2.61,0.27,3.91c0,1.33-0.09,2.64-0.27,3.91H168.07z M191.01,422.86
			c-0.76-2.88-2.17-5.22-4.23-7.01c-2.12-1.85-4.55-2.78-7.28-2.78c-2.73,0-5.14,0.93-7.24,2.78c-2,1.79-3.4,4.13-4.19,7.01H191.01z
			"/>
		<path class="st0" d="M218.29,430.68c0.76,2.82,2.23,5.13,4.42,6.92c2.15,1.76,4.63,2.72,7.42,2.87c0.55,0.03,1.06,0.05,1.55,0.05
			c3.03,0,5.37-0.55,7.01-1.64c1.82,0.55,3.6,1.76,5.33,3.64c1,1.06,1.79,2.09,2.37,3.1c-2.4,1.61-4.66,2.75-6.78,3.41
			c-2.61,0.82-5.77,1.23-9.47,1.23c-3,0-5.87-0.62-8.6-1.87c-2.64-1.18-4.99-2.85-7.06-5.01c-2.03-2.18-3.61-4.67-4.73-7.47
			c-1.15-2.91-1.73-5.96-1.73-9.15s0.58-6.24,1.73-9.15c1.12-2.79,2.7-5.28,4.73-7.47c2.06-2.15,4.42-3.82,7.06-5.01
			c2.73-1.24,5.6-1.87,8.6-1.87c2.67,0,5.22,0.5,7.65,1.5c2.34,0.97,4.46,2.35,6.37,4.14c1.85,1.76,3.38,3.82,4.6,6.19
			c1.21,2.4,2.05,4.98,2.5,7.74c0.18,1.31,0.27,2.61,0.27,3.91c0,1.33-0.09,2.64-0.27,3.91H218.29z M241.23,422.86
			c-0.76-2.88-2.17-5.22-4.23-7.01c-2.12-1.85-4.55-2.78-7.28-2.78c-2.73,0-5.14,0.93-7.24,2.78c-2,1.79-3.4,4.13-4.19,7.01H241.23z
			"/>
		<path class="st0" d="M291.23,447.21c-3.37,2.03-7,3.05-10.88,3.05c-3,0-5.87-0.62-8.6-1.87c-2.64-1.18-4.99-2.85-7.06-5.01
			c-2.03-2.18-3.61-4.67-4.73-7.47c-1.15-2.91-1.73-5.96-1.73-9.15s0.58-6.24,1.73-9.15c1.12-2.79,2.7-5.28,4.73-7.47
			c2.06-2.15,4.42-3.82,7.06-5.01c2.73-1.24,5.6-1.87,8.6-1.87c3.88,0,7.51,1.02,10.88,3.05c3.25,1.94,5.87,4.61,7.87,8.01
			c-0.73,0.58-1.88,1.21-3.46,1.91c-2.16,0.91-4.1,1.37-5.83,1.37h-0.32c-1.15-1.43-2.5-2.53-4.05-3.32
			c-1.61-0.82-3.31-1.23-5.1-1.23c-1.67,0-3.28,0.36-4.83,1.09c-1.46,0.7-2.76,1.67-3.91,2.91c-1.12,1.27-2,2.73-2.64,4.37
			c-0.64,1.7-0.96,3.47-0.96,5.33c0,1.85,0.32,3.63,0.96,5.33c0.64,1.64,1.52,3.1,2.64,4.37c1.15,1.27,2.46,2.25,3.91,2.91
			c1.55,0.73,3.16,1.09,4.83,1.09c1.79,0,3.49-0.41,5.1-1.23c1.55-0.79,2.9-1.9,4.05-3.32h0.32c1.73,0,3.67,0.47,5.83,1.41
			c1.61,0.67,2.76,1.29,3.46,1.87C297.1,442.6,294.47,445.27,291.23,447.21z"/>
		<path class="st0" d="M340.45,407.24c3.03,2.15,5.42,4.93,7.15,8.33c1.79,3.46,2.69,7.19,2.69,11.2v23.49h-9.83v-23.49
			c0-1.85-0.32-3.63-0.96-5.33c-0.61-1.64-1.49-3.1-2.64-4.37c-1.12-1.24-2.43-2.22-3.91-2.91c-1.52-0.73-3.11-1.09-4.78-1.09
			c-1.67,0-3.26,0.35-4.78,1.05c-1.46,0.7-2.76,1.67-3.91,2.91c-1.12,1.24-2,2.67-2.64,4.28c-0.67,1.67-1,3.43-1,5.28v23.67h-9.79
			v-66.32c1.46-1.12,3.44-1.94,5.96-2.46c1.49-0.3,2.59-0.46,3.32-0.46c0.18,0,0.35,0.01,0.5,0.05v26.22
			c3.7-2.67,7.81-4.01,12.34-4.01C332.65,403.28,336.75,404.6,340.45,407.24z"/>
		<path class="st0" d="M391.9,447.21c-3.37,2.03-7,3.05-10.88,3.05c-3,0-5.87-0.62-8.6-1.87c-2.64-1.18-4.99-2.85-7.06-5.01
			c-2.03-2.18-3.61-4.67-4.73-7.47c-1.15-2.91-1.73-5.96-1.73-9.15s0.58-6.24,1.73-9.15c1.12-2.79,2.7-5.28,4.73-7.47
			c2.06-2.15,4.42-3.82,7.06-5.01c2.73-1.24,5.6-1.87,8.6-1.87c3.88,0,7.51,1.02,10.88,3.05c3.25,1.94,5.87,4.61,7.87,8.01
			c-0.73,0.58-1.88,1.21-3.46,1.91c-2.15,0.91-4.1,1.37-5.83,1.37h-0.32c-1.15-1.43-2.5-2.53-4.05-3.32
			c-1.61-0.82-3.31-1.23-5.1-1.23c-1.67,0-3.28,0.36-4.83,1.09c-1.46,0.7-2.76,1.67-3.91,2.91c-1.12,1.27-2,2.73-2.64,4.37
			c-0.64,1.7-0.96,3.47-0.96,5.33c0,1.85,0.32,3.63,0.96,5.33c0.64,1.64,1.52,3.1,2.64,4.37c1.15,1.27,2.46,2.25,3.91,2.91
			c1.55,0.73,3.16,1.09,4.83,1.09c1.79,0,3.49-0.41,5.1-1.23c1.55-0.79,2.9-1.9,4.05-3.32h0.32c1.73,0,3.67,0.47,5.83,1.41
			c1.61,0.67,2.76,1.29,3.46,1.87C397.77,442.6,395.15,445.27,391.9,447.21z"/>
		<path class="st0" d="M426.65,403.28c3,0,5.87,0.62,8.6,1.87c2.64,1.18,4.98,2.85,7.01,5.01c2.06,2.18,3.64,4.67,4.73,7.47
			c1.18,2.91,1.78,5.96,1.78,9.15s-0.59,6.24-1.78,9.15c-1.09,2.79-2.67,5.28-4.73,7.47c-2.03,2.15-4.37,3.82-7.01,5.01
			c-2.73,1.24-5.6,1.87-8.6,1.87c-3,0-5.87-0.62-8.6-1.87c-2.64-1.18-4.99-2.85-7.06-5.01c-2.03-2.18-3.61-4.67-4.73-7.47
			c-1.15-2.91-1.73-5.96-1.73-9.15s0.58-6.24,1.73-9.15c1.12-2.79,2.7-5.28,4.73-7.47c2.06-2.15,4.42-3.82,7.06-5.01
			C420.78,403.9,423.64,403.28,426.65,403.28z M426.65,440.47c1.67,0,3.26-0.36,4.78-1.09c1.49-0.67,2.79-1.64,3.91-2.91
			c1.15-1.27,2.03-2.73,2.64-4.37c0.67-1.7,1-3.47,1-5.33c0-1.85-0.33-3.63-1-5.33c-0.61-1.64-1.49-3.1-2.64-4.37
			c-1.12-1.24-2.43-2.22-3.91-2.91c-1.52-0.73-3.11-1.09-4.78-1.09s-3.28,0.36-4.83,1.09c-1.46,0.7-2.76,1.67-3.91,2.91
			c-1.12,1.27-2,2.73-2.64,4.37c-0.64,1.7-0.96,3.47-0.96,5.33c0,1.85,0.32,3.63,0.96,5.33c0.64,1.64,1.52,3.1,2.64,4.37
			c1.15,1.27,2.46,2.25,3.91,2.91C423.37,440.11,424.98,440.47,426.65,440.47z"/>
		<path class="st0" d="M481.47,403.28c0.03,0.15,0.05,0.32,0.05,0.5c0,0.76-0.15,1.87-0.46,3.32c-0.49,2.46-1.29,4.45-2.41,5.96
			c-1.91,0.18-3.82,0.88-5.74,2.09c-3.82,2.43-5.74,6.3-5.74,11.61v23.49h-9.79v-44.11c1.46-1.15,3.44-1.97,5.96-2.46
			c1.49-0.3,2.59-0.46,3.32-0.46c0.18,0,0.35,0.01,0.5,0.05v3.96c0.7-0.49,1.38-0.91,2.05-1.27c0.52-0.3,1-0.55,1.46-0.73
			c0.76-0.36,1.52-0.67,2.28-0.91c0.52-0.18,1.03-0.33,1.55-0.46c0.36-0.09,0.64-0.15,0.82-0.18c0.48-0.09,1.03-0.18,1.64-0.27
			c0.82-0.09,1.67-0.14,2.55-0.14H481.47z"/>
		<path class="st0" d="M509.8,403.33c3,0,5.87,0.61,8.6,1.82c2.64,1.18,4.98,2.87,7.01,5.05c2.06,2.15,3.64,4.64,4.73,7.47
			c1.18,2.91,1.78,5.95,1.78,9.1c0,3.19-0.59,6.24-1.78,9.15c-1.09,2.82-2.67,5.31-4.73,7.47c-2.03,2.18-4.37,3.87-7.01,5.05
			c-2.73,1.21-5.6,1.82-8.6,1.82c-4.49,0-8.6-1.32-12.34-3.96v24.08h-9.79v-64.23c1.49-1.12,3.49-1.94,6.01-2.46
			c1.37-0.27,2.41-0.41,3.14-0.41c0.24,0,0.46,0.01,0.64,0.05v3.96C501.19,404.65,505.3,403.33,509.8,403.33z M509.8,440.47
			c1.67,0,3.26-0.35,4.78-1.05c1.49-0.7,2.79-1.68,3.91-2.96c1.15-1.24,2.03-2.69,2.64-4.32c0.67-1.7,1-3.49,1-5.37
			c0-1.85-0.33-3.63-1-5.33c-0.61-1.64-1.49-3.08-2.64-4.32c-1.12-1.27-2.43-2.26-3.91-2.96c-1.52-0.7-3.11-1.05-4.78-1.05
			c-1.67,0-3.26,0.35-4.78,1.05c-1.46,0.7-2.76,1.67-3.91,2.91c-1.12,1.24-2,2.69-2.64,4.32c-0.67,1.67-1,3.43-1,5.28v0.23
			c0,1.85,0.33,3.61,1,5.28c0.64,1.64,1.52,3.08,2.64,4.32c1.15,1.24,2.46,2.22,3.91,2.91C506.53,440.12,508.13,440.47,509.8,440.47
			z"/>
		<path class="st0" d="M555.41,441.59c0,1.24-0.25,2.41-0.75,3.5c-0.5,1.09-1.17,2.04-2,2.84c-0.84,0.81-1.82,1.46-2.94,1.96
			c-1.12,0.5-2.27,0.75-3.45,0.75c-1.24,0-2.41-0.25-3.5-0.75c-1.09-0.5-2.04-1.15-2.84-1.96c-0.81-0.81-1.46-1.76-1.96-2.84
			c-0.5-1.09-0.75-2.25-0.75-3.5c0-1.24,0.25-2.41,0.75-3.5c0.5-1.09,1.15-2.05,1.96-2.89c0.81-0.84,1.76-1.49,2.84-1.96
			c1.09-0.47,2.25-0.7,3.5-0.7c1.18,0,2.33,0.23,3.45,0.7c1.12,0.47,2.1,1.12,2.94,1.96c0.84,0.84,1.51,1.8,2,2.89
			C555.16,439.18,555.41,440.35,555.41,441.59z"/>
	</g>
</g>
</svg>
